\relax 
\catcode`.\active
\catcode`\.=12
\catcode`"\active
\catcode`<\active
\catcode`>\active
\es@quoting
\ifx\hyper@anchor\@undefined
\global \let \oldcontentsline\contentsline
\gdef \contentsline#1#2#3#4{\oldcontentsline{#1}{#2}{#3}}
\global \let \oldnewlabel\newlabel
\gdef \newlabel#1#2{\newlabelxx{#1}#2}
\gdef \newlabelxx#1#2#3#4#5#6{\oldnewlabel{#1}{{#2}{#3}}}
\AtEndDocument{\let \contentsline\oldcontentsline
\let \newlabel\oldnewlabel}
\else
\global \let \hyper@last\relax 
\fi

\citation{JASPERweb}
\citation{JPEGORG}
\citation{JASPER}
\select@language{spanish}
\@writefile{toc}{\select@language{spanish}}
\@writefile{lof}{\select@language{spanish}}
\@writefile{lot}{\select@language{spanish}}
\citation{GTKORG}
\citation{GTKtutorial}
\citation{Pennington1999}
\@writefile{toc}{\contentsline {section}{\numberline {1}Introducci\IeC {\'o}n}{2}{section.1}}
\@writefile{toc}{\contentsline {section}{\numberline {2}Manipulaci\IeC {\'o}n de im\IeC {\'a}genes}{2}{section.2}}
\@writefile{toc}{\contentsline {subsection}{\numberline {2.1}ADT\_Image}{2}{subsection.2.1}}
\@writefile{toc}{\contentsline {subsection}{\numberline {2.2}Archivos de imagen: JasPer}{2}{subsection.2.2}}
\@writefile{toc}{\contentsline {subsubsection}{\numberline {2.2.1}ADT\_Jasper}{2}{subsubsection.2.2.1}}
\@writefile{toc}{\contentsline {subsubsection}{\numberline {2.2.2}Requisitos}{2}{subsubsection.2.2.2}}
\citation{GladeORG}
\@writefile{lof}{\contentsline {figure}{\numberline {1}{\ignorespaces ADT\_GTK.h}}{3}{figure.1}}
\@writefile{toc}{\contentsline {subsection}{\numberline {2.3}Caso de prueba}{3}{subsection.2.3}}
\@writefile{toc}{\contentsline {section}{\numberline {3}Interfaz gr\IeC {\'a}fica: GTK+ y Glade}{3}{section.3}}
\@writefile{toc}{\contentsline {subsection}{\numberline {3.1}ADT\_GTK}{3}{subsection.3.1}}
\@writefile{toc}{\contentsline {subsubsection}{\numberline {3.1.1}Programa principal}{3}{subsubsection.3.1.1}}
\@writefile{toc}{\contentsline {subsection}{\numberline {3.2}Requisitos}{3}{subsection.3.2}}
\@writefile{lof}{\contentsline {figure}{\numberline {2}{\ignorespaces ADT\_GTK.cpp}}{4}{figure.2}}
\@writefile{lof}{\contentsline {figure}{\numberline {3}{\ignorespaces main.cpp}}{4}{figure.3}}
\citation{WTSB+}
\@writefile{lof}{\contentsline {figure}{\numberline {4}{\ignorespaces My\_guiClass.h}}{5}{figure.4}}
\@writefile{toc}{\contentsline {section}{\numberline {4}Dispositivos de v\IeC {\'\i }deo: GStreamer}{5}{section.4}}
\@writefile{toc}{\contentsline {subsection}{\numberline {4.1}ADT\_Video}{5}{subsection.4.1}}
\@writefile{toc}{\contentsline {subsection}{\numberline {4.2}ADT\_GStreamer}{5}{subsection.4.2}}
\@writefile{lof}{\contentsline {figure}{\numberline {5}{\ignorespaces My\_guiClass.cpp}}{6}{figure.5}}
\citation{ASL04}
\citation{ASL04}
\citation{ASL04}
\@writefile{toc}{\contentsline {subsubsection}{\numberline {4.2.1}Requisitos}{7}{subsubsection.4.2.1}}
\@writefile{toc}{\contentsline {section}{\numberline {5}\IeC {\'A}lgebra lineal}{7}{section.5}}
\@writefile{toc}{\contentsline {section}{\numberline {6}Procesamiento de im\IeC {\'a}genes}{7}{section.6}}
\@writefile{toc}{\contentsline {subsection}{\numberline {6.1}ADT\_ColorSpace}{7}{subsection.6.1}}
\@writefile{toc}{\contentsline {subsection}{\numberline {6.2}ADT\_Filters}{7}{subsection.6.2}}
\@writefile{toc}{\contentsline {subsection}{\numberline {6.3}ADT\_Geometry}{7}{subsection.6.3}}
\@writefile{toc}{\contentsline {subsection}{\numberline {6.4}ADT\_Histogram}{7}{subsection.6.4}}
\@writefile{toc}{\contentsline {subsection}{\numberline {6.5}ADT\_Threshold}{7}{subsection.6.5}}
\@writefile{toc}{\contentsline {section}{\numberline {7}Licencias de c\IeC {\'o}digo abierto}{7}{section.7}}
\@writefile{toc}{\contentsline {subsection}{\numberline {7.1}MIT License}{7}{subsection.7.1}}
\@writefile{toc}{\contentsline {subsection}{\numberline {7.2}BSD}{7}{subsection.7.2}}
\bibstyle{plain}
\bibdata{ADTlib.bib}
\bibcite{GladeORG}{1}
\bibcite{GTKORG}{2}
\bibcite{JPEGORG}{3}
\bibcite{JASPER}{4}
\bibcite{ASL04}{5}
\bibcite{Pennington1999}{6}
\bibcite{JASPERweb}{7}
\bibcite{GTKtutorial}{8}
\bibcite{WTSB+}{9}
\@writefile{toc}{\contentsline {subsection}{\numberline {7.3}GPL}{8}{subsection.7.3}}
\@writefile{toc}{\contentsline {subsection}{\numberline {7.4}LGPL}{8}{subsection.7.4}}
